Building pressure before taking a wicket
…
raw_tbl = readRDS("data/RData/ball_by_ball_22_Aug_2020.rds")

3 Visualise cumulative runs

all_tests = raw_tbl %>% unnest(match_tbl) %>%
  # dplyr::sample_frac(size = 0.001) %>% 
  dplyr::mutate(total_balls_match = purrr::map_int(innings_tbl, nrow)) %>% 
  unnest(innings_tbl) %>% 
  clean_over_balls() %>% 
  dplyr::filter(over_ball <= 6) %>% 
  dplyr::mutate(over_ball = factor(over_ball))

all_tests

## # A tibble: 1,049,858 x 28
##    filename venue team1 team2 date  gender toss_winner toss_decision match_type
##    <chr>    <chr> <chr> <chr> <chr> <chr>  <chr>       <chr>         <chr>     
##  1 data/ba West Aust Sout 2016 male   South Afri bat           Test      
##  2 data/ba West Aust Sout 2016 male   South Afri bat           Test      
##  3 data/ba West Aust Sout 2016 male   South Afri bat           Test      
##  4 data/ba West Aust Sout 2016 male   South Afri bat           Test      
##  5 data/ba West Aust Sout 2016 male   South Afri bat           Test      
##  6 data/ba West Aust Sout 2016 male   South Afri bat           Test      
##  7 data/ba West Aust Sout 2016 male   South Afri bat           Test      
##  8 data/ba West Aust Sout 2016 male   South Afri bat           Test      
##  9 data/ba West Aust Sout 2016 male   South Afri bat           Test      
## 10 data/ba West Aust Sout 2016 male   South Afri bat           Test      
## #  with 1,049,848 more rows, and 19 more variables: winning_team <chr>,
## #   winning_type <chr>, winning_margin <chr>, innings <chr>, batsman <chr>,
## #   bowler <chr>, non_striker <chr>, runs_batsman <int>, runs_extras <int>,
## #   runs_total <int>, ball <fct>, over <int>, over_ball <fct>,
## #   wicket_kind <chr>, wicket_out <chr>, extras_kind <chr>, batting_team <chr>,
## #   total_balls_match <int>, wicket <fct>
…
