Kevin Wang’s template
…
## Warning in function_list[[i]](value): NAs introduced by coercion

## Warning: 774 failed to parse.

test

## # A tibble: 830 x 8
##    date       series       ground     result     aus_won aus_draw aus_lost  year
##    <date>     <chr>        <chr>      <chr>      <lgl>   <lgl>    <lgl>    <dbl>
##  1 1877-03-15 1876-1877 A… Melbourne… Australia… TRUE    FALSE    FALSE     1877
##  2 1877-03-31 1876-1877 A… Melbourne… England w… FALSE   FALSE    TRUE      1877
##  3 1879-01-02 1878-1879 A… Melbourne… Australia… TRUE    FALSE    FALSE     1879
##  4 1880-09-06 1880 Englan… Kenningto… England w… FALSE   FALSE    TRUE      1880
##  5 1881-12-31 1881-1882 A… Melbourne… Match Dra… FALSE   TRUE     FALSE     1881
##  6 1882-02-17 1881-1882 A… Sydney Cr… Australia… TRUE    FALSE    FALSE     1882
##  7 1882-03-03 1881-1882 A… Sydney Cr… Australia… TRUE    FALSE    FALSE     1882
##  8 1882-03-10 1881-1882 A… Melbourne… Match Dra… FALSE   TRUE     FALSE     1882
##  9 1882-08-28 1882 Englan… Kenningto… Australia… TRUE    FALSE    FALSE     1882
## 10 1882-12-30 1882-1883 A… Melbourne… Australia… TRUE    FALSE    FALSE     1882
## # … with 820 more rows
test_year = test %>% 
  group_by(year) %>% 
  dplyr::summarise(
    aus_won = sum(aus_won),
    aus_draw = sum(aus_draw),
    aus_lost = sum(aus_lost)) %>% 
  pivot_longer(cols = contains("aus"),
               names_to = "result", 
               values_to = "total")

## `summarise()` ungrouping output (override with `.groups` argument)

test_year

## # A tibble: 366 x 3
##     year result   total
##    <dbl> <chr>    <int>
##  1  1877 aus_won      1
##  2  1877 aus_draw     0
##  3  1877 aus_lost     1
##  4  1879 aus_won      1
##  5  1879 aus_draw     0
##  6  1879 aus_lost     0
##  7  1880 aus_won      0
##  8  1880 aus_draw     0
##  9  1880 aus_lost     1
## 10  1881 aus_won      0
## # … with 356 more rows
…
## See spec(...) for full column specifications.

aus_gdp

## # A tibble: 59 x 2
##     year gdp_growth
##    <int>      <dbl>
##  1  1961       2.49
##  2  1962       1.30
##  3  1963       6.21
##  4  1964       6.98
##  5  1965       5.98
##  6  1966       2.38
##  7  1967       6.30
##  8  1968       5.10
##  9  1969       7.04
## 10  1970       7.17
## # … with 49 more rows
…
